hw-03.qmd
…
0.000

0.00

0.00

0.00

y

library(tidyverse)
as_tibble(spamCsv)

# A tibble: 4,601 × 7
   crl.tot dollar  bang money  n000  make yesno
     <dbl>  <dbl> <dbl> <dbl> <dbl> <dbl> <chr>
 1     278  0     0.778  0     0     0    y    
 2    1028  0.18  0.372  0.43  0.43  0.21 y    
 3    2259  0.184 0.276  0.06  1.16  0.06 y    
 4     191  0     0.137  0     0     0    y    
 5     191  0     0.135  0     0     0    y    
 6      54  0     0      0     0     0    y    
 7     112  0.054 0.164  0     0     0    y    
 8      49  0     0      0     0     0    y    
 9    1257  0.203 0.181  0.15  0     0.15 y    
10     749  0.081 0.244  0     0.19  0.06 y    
# ℹ 4,591 more rows
…
            Sensitivity : 0.9028          
            Specificity : 0.7992          
         Pos Pred Value : 0.8737          
         Neg Pred Value : 0.8424          
             Prevalence : 0.6060          
         Detection Rate : 0.5471          
   Detection Prevalence : 0.6262          
      Balanced Accuracy : 0.8510          
                                          
       'Positive' Class : n               

spamCsv

# A tibble: 4,601 × 7
   crl.tot dollar  bang money  n000  make yesno
     <dbl>  <dbl> <dbl> <dbl> <dbl> <dbl> <fct>
 1     278  0     0.778  0     0     0    y    
 2    1028  0.18  0.372  0.43  0.43  0.21 y    
 3    2259  0.184 0.276  0.06  1.16  0.06 y    
 4     191  0     0.137  0     0     0    y    
 5     191  0     0.135  0     0     0    y    
 6      54  0     0      0     0     0    y    
 7     112  0.054 0.164  0     0     0    y    
 8      49  0     0      0     0     0    y    
 9    1257  0.203 0.181  0.15  0     0.15 y    
10     749  0.081 0.244  0     0.19  0.06 y    
# ℹ 4,591 more rows
…
This code below doesn’t make sense because “money” does not a have categorical value and n and y we cant predict anything with numerical value. just implementing the code for reference.

spamCsv_train_dummy <- as_tibble(class2ind(spamCsv_train$yesno)) |> 
  mutate(across(everything(), as.factor)) |>
  add_column(money = spamCsv_train$money)
spamCsv_train_dummy 

# A tibble: 3,682 × 3
   n     y     money
   <fct> <fct> <dbl>
 1 0     1      0   
 2 0     1      0.43
 3 0     1      0.06
 4 0     1      0   
 5 0     1      0   
 6 0     1      0   
 7 0     1      0   
 8 0     1      0   
 9 0     1      0   
10 0     1      0   
# ℹ 3,672 more rows
…
Using Penguins Dataset

For easier visualization, we use two dimensions of the penguins dataset. Contour lines visualize the density like mountains on a map

set.seed(1000)
data("penguins")
penguins<- as_tibble(penguins) |>
  drop_na()
### Three classes
x<- penguins |> dplyr::select(bill_length_mm,bill_depth_mm,species)
x

# A tibble: 333 × 3
   bill_length_mm bill_depth_mm species
            <dbl>         <dbl> <fct>  
 1           39.1          18.7 Adelie 
 2           39.5          17.4 Adelie 
 3           40.3          18   Adelie 
 4           36.7          19.3 Adelie 
 5           39.3          20.6 Adelie 
 6           38.9          17.8 Adelie 
 7           39.2          19.6 Adelie 
 8           41.1          17.6 Adelie 
 9           38.6          21.2 Adelie 
10           34.6          21.1 Adelie 
# ℹ 323 more rows
…
This dataset is not linearly separable

set.seed(1000)

x <- mlbench::mlbench.circle(500)
###x <- mlbench::mlbench.cassini(500)
###x <- mlbench::mlbench.spirals(500, sd = .1)
###x <- mlbench::mlbench.smiley(500)
x <- cbind(as.data.frame(x$x), factor(x$classes))
colnames(x) <- c("x", "y", "class")
x <- as_tibble(x)
x

# A tibble: 500 × 3
         x       y class
     <dbl>   <dbl> <fct>
 1 -0.344   0.448  1    
 2  0.518   0.915  2    
 3 -0.772  -0.0913 1    
 4  0.382   0.412  1    
 5  0.0328  0.438  1    
 6 -0.865  -0.354  2    
 7  0.477   0.640  2    
 8  0.167  -0.809  2    
 9 -0.568  -0.281  1    
10 -0.488   0.638  2    
# ℹ 490 more rows
…
